Lab 4
…
defAll <- inner_join(defClean, defClean18, by ='Name') %>% 
  mutate(Tackles= Tackles_Solo.x - Tackles_Solo.y) %>%
  select(Name, Tackles) %>% 
  arrange(desc(Tackles))

print(defAll) 

## # A tibble: 3,264 x 2
##    Name              Tackles
##    <fct>               <dbl>
##  1 Lewis, Braxton          9
##  2 Lewis, Braxton          9
##  3 Lewis, Braxton          8
##  4 Lewis, Braxton          7
##  5 Lewis, Braxton          7
##  6 Lewis, Braxton          7
##  7 Lewis, Braxton          7
##  8 Lewis, Braxton          7
##  9 Johnson , Anthony       7
## 10 Johnson , Anthony       7
## #  with 3,254 more rows
…
Among the defensive players, Braxton Lewis showed the best progress from 2018 to 2019 based on the Tackles record.

offAll <- inner_join(offClean, offClean18, by ='Name') %>% 
  mutate(Receiving = Receiving_YDS.x - Receiving_YDS.y) %>% 
  select(Name, Receiving) %>% 
  arrange(desc(Receiving))

print(offAll)

## # A tibble: 1,223 x 2
##    Name             Receiving
##    <fct>                <dbl>
##  1 Jones, Deshaunte       144
##  2 Milton, Tarique        144
##  3 Milton, Tarique        144
##  4 Milton, Tarique        142
##  5 Milton, Tarique        142
##  6 Milton, Tarique        141
##  7 Jones, Deshaunte       140
##  8 Milton, Tarique        139
##  9 Jones, Deshaunte       138
## 10 Milton, Tarique        130
## #  with 1,213 more rows
…
